…
Podemos perceber que a que possui maior média e mediana é a série Friends, portanto para quem pretende começar a assistir alguma delas, podem começar com ‘Friends’ que provavelmente irá gostar.

##Perguntas feitas a partir dos resultados encontrados

**Qual a série que possui média e mediana mais alta dentre todas as séries durante a primeira temporada? Isso para quem ainda não assistiu nenhuma série**

Para aquela pessoa que não assistiu nenhuma série e pretende saber o que a maioria das pessoas gostam e estam avaliando melhor, utilizamos como métrica a média e mediana de cada série. A mediana é o valor central das avaliações, na qual separa ao meio os maiores valores dos menores.


{% highlight text %}
## # A tibble: 31 x 3
##                    series_name    media mediana
##                          <chr>    <dbl>   <dbl>
##  1                      Sense8 8.891304    9.00
##  2                    Sherlock 8.866667    9.00
##  3                   Daredevil 8.996154    8.95
##  4             Game of Thrones 9.046667    8.95
##  5             Stranger Things 8.900000    8.95
##  6                Breaking Bad 8.985484    8.90
##  7                    Mr Robot 8.877273    8.80
##  8                      Dexter 8.647917    8.70
##  9                       Flash 8.717647    8.70
## 10 How to Get Away with Murder 8.751111    8.70
## # ... with 21 more rows
…
